t,a,b
0,100,100
1,100,100
2,100,100
3,100,100
4,100,100
5,97,103
6,93,107
7,91,109
8,86,114
9,77,123
10,69,131
11,65,135
12,62,138
13,51,149
14,48,152
15,48,152
16,46,154
17,48,152
18,52,148
19,54,146
20,51,149
21,47,153
22,44,156
23,40,160
24,40,160
25,37,163
26,33,167
27,29,171
28,27,173
29,26,174
30,24,176
31,22,178
32,23,177
33,24,176
34,23,177
35,23,177
36,21,179
37,20,180
38,14,186
39,16,184
40,19,181
41,17,183
42,16,184
43,13,187
44,11,189
45,9,191
46,9,191
47,8,192
48,9,191
49,7,193
50,7,193
51,8,192
52,8,192
53,5,195
54,4,196
55,4,196
56,4,196
57,4,196
58,4,196
59,5,195
60,6,194
61,6,194
62,7,193
63,6,194
64,6,194
65,6,194
66,6,194
67,6,194
68,6,194
69,6,194
70,5,195
71,4,196
72,4,196
73,3,197
74,2,198
75,1,199
76,1,199
77,2,198
78,2,198
79,2,198
80,2,198
81,1,199
82,1,199
83,1,199
84,1,199
85,1,199
86,1,199
87,1,199
88,1,199
89,0,200
90,0,200
91,0,200
92,0,200
93,0,200
94,0,200
95,0,200
96,0,200
97,0,200
98,0,200
99,0,200