t,A,B
0,100,100
1,100,100
2,100,100
3,100,100
4,99,101
5,96,104
6,92,108
7,88,112
8,86,114
9,76,124
10,69,131
11,58,142
12,51,149
13,43,157
14,35,165
15,32,168
16,30,170
17,32,168
18,30,170
19,29,171
20,29,171
21,32,168
22,32,168
23,32,168
24,24,176
25,24,176
26,23,177
27,22,178
28,21,179
29,16,184
30,14,186
31,13,187
32,12,188
33,8,192
34,8,192
35,8,192
36,8,192
37,7,193
38,5,195
39,5,195
40,5,195
41,4,196
42,4,196
43,4,196
44,2,198
45,2,198
46,2,198
47,2,198
48,0,200
49,0,200
50,0,200
51,0,200
52,0,200
53,0,200
54,0,200
55,0,200
56,0,200
57,0,200
58,0,200
59,0,200
60,0,200
61,0,200
62,0,200
63,0,200
64,0,200
65,0,200
66,0,200
67,0,200
68,0,200
69,0,200
70,0,200
71,0,200
72,0,200
73,0,200
74,0,200
75,0,200
76,0,200
77,0,200
78,0,200
79,0,200
80,0,200
81,0,200
82,0,200
83,0,200
84,0,200
85,0,200
86,0,200
87,0,200
88,0,200
89,0,200
90,0,200
91,0,200
92,0,200
93,0,200
94,0,200
95,0,200
96,0,200
97,0,200
98,0,200
99,0,200