t,A,B
0,100,100
1,100,100
2,100,100
3,99,101
4,98,102
5,96,104
6,95,105
7,93,107
8,85,115
9,79,121
10,71,129
11,61,139
12,60,140
13,58,142
14,53,147
15,49,151
16,46,154
17,46,154
18,42,158
19,41,159
20,40,160
21,37,163
22,35,165
23,32,168
24,28,172
25,25,175
26,18,182
27,19,181
28,18,182
29,14,186
30,14,186
31,11,189
32,9,191
33,8,192
34,7,193
35,7,193
36,7,193
37,8,192
38,6,194
39,5,195
40,5,195
41,3,197
42,2,198
43,2,198
44,2,198
45,2,198
46,2,198
47,2,198
48,2,198
49,1,199
50,1,199
51,1,199
52,1,199
53,1,199
54,0,200
55,0,200
56,0,200
57,0,200
58,0,200
59,0,200
60,0,200
61,0,200
62,0,200
63,0,200
64,0,200
65,0,200
66,0,200
67,0,200
68,0,200
69,0,200
70,0,200
71,0,200
72,0,200
73,0,200
74,0,200
75,0,200
76,0,200
77,0,200
78,0,200
79,0,200
80,0,200
81,0,200
82,0,200
83,0,200
84,0,200
85,0,200
86,0,200
87,0,200
88,0,200
89,0,200
90,0,200
91,0,200
92,0,200
93,0,200
94,0,200
95,0,200
96,0,200
97,0,200
98,0,200
99,0,200