t,a,b
0,100,100
1,100,100
2,100,100
3,100,100
4,100,100
5,99,101
6,97,103
7,95,105
8,91,109
9,85,115
10,75,125
11,72,128
12,67,133
13,61,139
14,65,135
15,63,137
16,59,141
17,53,147
18,53,147
19,52,148
20,44,156
21,43,157
22,38,162
23,34,166
24,30,170
25,26,174
26,24,176
27,23,177
28,22,178
29,21,179
30,21,179
31,21,179
32,21,179
33,22,178
34,20,180
35,18,182
36,20,180
37,19,181
38,18,182
39,16,184
40,14,186
41,14,186
42,10,190
43,7,193
44,7,193
45,7,193
46,7,193
47,7,193
48,5,195
49,5,195
50,3,197
51,3,197
52,2,198
53,2,198
54,2,198
55,1,199
56,0,200
57,0,200
58,0,200
59,0,200
60,0,200
61,0,200
62,0,200
63,0,200
64,0,200
65,0,200
66,0,200
67,0,200
68,0,200
69,0,200
70,0,200
71,0,200
72,0,200
73,0,200
74,0,200
75,0,200
76,0,200
77,0,200
78,0,200
79,0,200
80,0,200
81,0,200
82,0,200
83,0,200
84,0,200
85,0,200
86,0,200
87,0,200
88,0,200
89,0,200
90,0,200
91,0,200
92,0,200
93,0,200
94,0,200
95,0,200
96,0,200
97,0,200
98,0,200
99,0,200