t,a,b
0,100,100
1,100,100
2,100,100
3,100,100
4,100,100
5,95,105
6,95,105
7,90,110
8,85,115
9,78,122
10,66,134
11,56,144
12,44,156
13,37,163
14,33,167
15,32,168
16,26,174
17,26,174
18,24,176
19,23,177
20,19,181
21,17,183
22,16,184
23,14,186
24,12,188
25,10,190
26,9,191
27,7,193
28,6,194
29,5,195
30,4,196
31,2,198
32,2,198
33,2,198
34,1,199
35,1,199
36,1,199
37,0,200
38,0,200
39,0,200
40,0,200
41,0,200
42,0,200
43,0,200
44,0,200
45,0,200
46,0,200
47,0,200
48,0,200
49,0,200
50,0,200
51,0,200
52,0,200
53,0,200
54,0,200
55,0,200
56,0,200
57,0,200
58,0,200
59,0,200
60,0,200
61,0,200
62,0,200
63,0,200
64,0,200
65,0,200
66,0,200
67,0,200
68,0,200
69,0,200
70,0,200
71,0,200
72,0,200
73,0,200
74,0,200
75,0,200
76,0,200
77,0,200
78,0,200
79,0,200
80,0,200
81,0,200
82,0,200
83,0,200
84,0,200
85,0,200
86,0,200
87,0,200
88,0,200
89,0,200
90,0,200
91,0,200
92,0,200
93,0,200
94,0,200
95,0,200
96,0,200
97,0,200
98,0,200
99,0,200